[gd_scene load_steps=3 format=2]

[ext_resource path="res://Tilesets/casapb1ash.tres" type="TileSet" id=1]
[ext_resource path="res://Scripts/nivel1.gd" type="Script" id=2]

[node name="nivel2" type="Node2D" groups=[
"nivel",
]]
script = ExtResource( 2 )

[node name="suelo" type="TileMap" parent="."]
z_index = -1
tile_set = ExtResource( 1 )
cell_size = Vector2( 16, 16 )
format = 1
tile_data = PoolIntArray( -131077, 10, 0, -131076, 10, 0, -131075, 10, 0, -131074, 10, 0, -131073, 10, 0, -196608, 10, 0, -196607, 10, 0, -196606, 10, 0, -196605, 10, 0, -196604, 10, 0, -65541, 10, 0, -65540, 8, 0, -65539, 8, 0, -65538, 8, 0, -65537, 8, 0, -131072, 8, 0, -131071, 8, 0, -131070, 8, 0, -131069, 8, 0, -131068, 10, 0, -5, 10, 0, -4, 8, 0, -3, 8, 0, -2, 8, 0, -1, 8, 0, -65536, 8, 0, -65535, 8, 0, -65534, 8, 0, -65533, 8, 0, -65532, 10, 0, 65531, 10, 0, 65532, 8, 0, 65533, 8, 0, 65534, 8, 0, 65535, 8, 0, 0, 8, 0, 1, 8, 0, 2, 8, 0, 3, 8, 0, 4, 10, 0, 131067, 10, 0, 131068, 8, 0, 131069, 8, 0, 131070, 8, 0, 131071, 8, 0, 65536, 8, 0, 65537, 8, 0, 65538, 8, 0, 65539, 8, 0, 65540, 10, 0, 196603, 10, 0, 196604, 8, 0, 196605, 8, 0, 196606, 8, 0, 196607, 8, 0, 131072, 8, 0, 131073, 8, 0, 131074, 8, 0, 131075, 8, 0, 131076, 10, 0, 262139, 10, 0, 262140, 8, 0, 262141, 8, 0, 262142, 8, 0, 262143, 8, 0, 196608, 8, 0, 196609, 8, 0, 196610, 8, 0, 196611, 8, 0, 196612, 10, 0, 327675, 10, 0, 327676, 8, 0, 327677, 8, 0, 327678, 8, 0, 327679, 8, 0, 262144, 8, 0, 262145, 8, 0, 262146, 8, 0, 262147, 8, 0, 262148, 10, 0, 393211, 10, 0, 393212, 10, 0, 393213, 10, 0, 393214, 10, 0, 393215, 10, 0, 327680, 10, 0, 327681, 10, 0, 327682, 10, 0, 327683, 10, 0, 327684, 10, 0 )

[node name="nivel" type="TileMap" parent="." groups=[
"tile",
]]
tile_set = ExtResource( 1 )
cell_size = Vector2( 16, 16 )
format = 1
tile_data = PoolIntArray( -196613, 20, 0, -196612, 20, 0, -196611, 20, 0, -196610, 20, 0, -196609, 20, 0, -262144, 20, 0, -262143, 20, 0, -262142, 20, 0, -262141, 20, 0, -262140, 20, 0, -131077, 20, 0, -131076, 0, 0, -131075, 0, 0, -131074, 6, 0, -131073, 7, 0, -196608, 6, 0, -196607, 7, 0, -196606, 6, 0, -196605, 7, 0, -196604, 20, 0, -65541, 20, 0, -65537, 9, 0, -131069, 4, 0, -131068, 20, 0, -5, 20, 0, -65532, 20, 0, 65531, 20, 0, 4, 20, 0, 131067, 20, 0, 131070, 2, 0, 131071, 1, 0, 65537, 2, 0, 65540, 20, 0, 196603, 20, 0, 196606, 2, 0, 196607, 14, 0, 131073, 2, 0, 131076, 20, 0, 262139, 20, 0, 262140, 18, 0, 196612, 20, 0, 327675, 20, 0, 327676, 19, 0, 327678, 3, 0, 327679, 3, 0, 262148, 20, 0, 393211, 20, 0, 393212, 20, 0, 393213, 20, 0, 393214, 20, 0, 393215, 20, 0, 327680, 20, 0, 327681, 20, 0, 327682, 20, 0, 327683, 20, 0, 327684, 20, 0 )

[node name="spawn_j" type="Position2D" parent="." groups=[
"spawn",
]]
position = Vector2( 40, -24 )
